<svg width="101" height="22" viewBox="0 0 101 22" fill="none" xmlns="http://www.w3.org/2000/svg">
<g clip-path="url(#clip0_109_4605)">
<path fill-rule="evenodd" clip-rule="evenodd" d="M0.0410156 21.271H100.036V0.729557H0.0410156L0.0434208 21.271H0.0410156Z" fill="#171321"/>
<path d="M3.30469 3.67615V17.7863H10.8275V13.4806H23.4677V17.7863H30.9906V3.67615H23.4677V7.69541H10.8275V3.67615H3.30469ZM32.1378 17.7863H39.7662V3.67188H32.1378V17.7863ZM40.9583 3.67615V17.7863H62.6059V11.4111H48.5898V3.67615H40.9583ZM89.6812 17.7863H96.7106V3.67188H89.6812V17.7863ZM57.1551 3.67615V10.1027H69.2984V17.7863H76.3278V10.1027H88.4882V3.67615H57.1551Z" fill="white"/>
</g>
<defs>
<clipPath id="clip0_109_4605">
<rect width="100" height="20.5433" fill="white" transform="translate(0.0380859 0.728271)"/>
</clipPath>
</defs>
</svg>
